<?xml version="1.0" standalone="no"?>
<mei xmlns="http://www.music-encoding.org/ns/mei" meiversion="5.1">
    <meiHead>
        <fileDesc>
            <titleStmt>
                <title>Recercar sexto</title>
                <composer>Giovanni Maria da Crema</composer>
            </titleStmt>
            <pubStmt />
        </fileDesc>
        <encodingDesc>
            <appInfo>
                <application isodate="2025-01-22" version="1.5.3">
                    <name>luteconv</name>
                </application>
            </appInfo>
        </encodingDesc>
        <workList>
            <work>
                <title>Recercar sexto</title>
                <composer>Giovanni Maria da Crema</composer>
            </work>
        </workList>
    </meiHead>
    <music>
        <body>
            <mdiv n="1">
                <score>
                    <scoreDef>
                        <staffGrp>
                            <staffDef n="1" lines="6" notationtype="tab.lute.italian">
                                <clef visible="false" shape="TAB" line="5" />
                                <tuning>
                                    <course n="1" pname="g" oct="4" />
                                    <course n="2" pname="d" oct="4" />
                                    <course n="3" pname="a" oct="3" />
                                    <course n="4" pname="f" oct="3" />
                                    <course n="5" pname="c" oct="3" />
                                    <course n="6" pname="g" oct="2" />
                                </tuning>
                            </staffDef>
                        </staffGrp>
                    </scoreDef>
                    <section n="1">
                        <measure n="1">
                            <staff n="1">
                                <layer n="1">
                                    <tabGrp dur="2">
                                        <tabDurSym />
                                        <note tab.course="4" tab.fret="2" pnum="55" />
                                        <note tab.course="6" tab.fret="0" pnum="43" />
                                    </tabGrp>
                                    <tabGrp dur="4" dots="1">
                                        <tabDurSym />
                                        <note tab.course="4" tab.fret="2" pnum="55" />
                                        <note tab.course="6" tab.fret="0" pnum="43" />
                                    </tabGrp>
                                    <tabGrp dur="8">
                                        <tabDurSym />
                                        <note tab.course="6" tab.fret="2" pnum="45" />
                                    </tabGrp>
                                </layer>
                            </staff>
                        </measure>
                        <measure n="2">
                            <staff n="1">
                                <layer n="1">
                                    <tabGrp dur="4">
                                        <tabDurSym />
                                        <note tab.course="4" tab.fret="2" pnum="55" />
                                        <note tab.course="6" tab.fret="3" pnum="46" />
                                    </tabGrp>
                                    <tabGrp dur="4">
                                        <note tab.course="5" tab.fret="0" pnum="48" />
                                    </tabGrp>
                                    <tabGrp dur="4">
                                        <note tab.course="4" tab.fret="2" pnum="55" />
                                        <note tab.course="6" tab.fret="3" pnum="46" />
                                    </tabGrp>
                                    <tabGrp dur="4">
                                        <note tab.course="5" tab.fret="3" pnum="51" />
                                    </tabGrp>
                                </layer>
                            </staff>
                        </measure>
                        <measure n="3">
                            <staff n="1">
                                <layer n="1">
                                    <tabGrp dur="4">
                                        <note tab.course="3" tab.fret="0" pnum="57" />
                                        <note tab.course="5" tab.fret="2" pnum="50" />
                                    </tabGrp>
                                    <tabGrp dur="4">
                                        <note tab.course="5" tab.fret="0" pnum="48" />
                                    </tabGrp>
                                    <tabGrp dur="4">
                                        <note tab.course="3" tab.fret="0" pnum="57" />
                                    </tabGrp>
                                    <tabGrp dur="16">
                                        <tabDurSym />
                                        <note tab.course="5" tab.fret="2" pnum="50" />
                                    </tabGrp>
                                    <tabGrp dur="16">
                                        <note tab.course="5" tab.fret="0" pnum="48" xml:id="id0" />
                                    </tabGrp>
                                    <tabGrp dur="16">
                                        <note tab.course="6" tab.fret="3" pnum="46" />
                                    </tabGrp>
                                    <tabGrp dur="16">
                                        <note tab.course="6" tab.fret="2" pnum="45" xml:id="id1" />
                                    </tabGrp>
                                </layer>
                            </staff>
                            <fing type="right 1" startid="#id0" />
                            <fing type="right 1" startid="#id1" />
                        </measure>
                        <measure n="4">
                            <staff n="1">
                                <layer n="1">
                                    <tabGrp dur="4">
                                        <tabDurSym />
                                        <note tab.course="3" tab.fret="1" pnum="58" />
                                        <note tab.course="6" tab.fret="0" pnum="43" />
                                    </tabGrp>
                                    <tabGrp dur="4">
                                        <note tab.course="5" tab.fret="3" pnum="51" />
                                    </tabGrp>
                                    <tabGrp dur="4">
                                        <note tab.course="3" tab.fret="1" pnum="58" />
                                        <note tab.course="5" tab.fret="2" pnum="50" />
                                    </tabGrp>
                                    <tabGrp dur="4">
                                        <note tab.course="6" tab.fret="3" pnum="46" />
                                    </tabGrp>
                                </layer>
                            </staff>
                        </measure>
                        <measure n="5">
                            <staff n="1">
                                <layer n="1">
                                    <tabGrp dur="4">
                                        <note tab.course="3" tab.fret="0" pnum="57" />
                                        <note tab.course="5" tab.fret="0" pnum="48" />
                                    </tabGrp>
                                    <tabGrp dur="4">
                                        <note tab.course="5" tab.fret="2" pnum="50" />
                                    </tabGrp>
                                    <tabGrp dur="4">
                                        <note tab.course="4" tab.fret="2" pnum="55" />
                                        <note tab.course="5" tab.fret="3" pnum="51" />
                                    </tabGrp>
                                    <tabGrp dur="8">
                                        <tabDurSym />
                                        <note tab.course="3" tab.fret="1" pnum="58" xml:id="id2" />
                                    </tabGrp>
                                    <tabGrp dur="8">
                                        <note tab.course="5" tab.fret="2" pnum="50" />
                                    </tabGrp>
                                </layer>
                            </staff>
                            <fing type="right 1" startid="#id2" />
                        </measure>
                        <measure n="6">
                            <staff n="1">
                                <layer n="1">
                                    <tabGrp dur="4">
                                        <tabDurSym />
                                        <note tab.course="3" tab.fret="0" pnum="57" />
                                        <note tab.course="5" tab.fret="0" pnum="48" />
                                    </tabGrp>
                                    <tabGrp dur="4">
                                        <note tab.course="4" tab.fret="2" pnum="55" />
                                        <note tab.course="6" tab.fret="3" pnum="46" />
                                    </tabGrp>
                                    <tabGrp dur="4">
                                        <note tab.course="6" tab.fret="2" pnum="45" />
                                    </tabGrp>
                                    <tabGrp dur="4">
                                        <note tab.course="4" tab.fret="1" pnum="54" />
                                    </tabGrp>
                                </layer>
                            </staff>
                        </measure>
                        <measure n="7">
                            <staff n="1">
                                <layer n="1">
                                    <tabGrp dur="4" dots="1">
                                        <tabDurSym />
                                        <note tab.course="1" tab.fret="0" pnum="67" />
                                        <note tab.course="4" tab.fret="2" pnum="55" />
                                        <note tab.course="6" tab.fret="0" pnum="43" />
                                    </tabGrp>
                                    <tabGrp dur="8">
                                        <tabDurSym />
                                        <note tab.course="3" tab.fret="0" pnum="57" />
                                    </tabGrp>
                                    <tabGrp dur="4">
                                        <tabDurSym />
                                        <note tab.course="1" tab.fret="0" pnum="67" />
                                        <note tab.course="3" tab.fret="1" pnum="58" />
                                    </tabGrp>
                                    <tabGrp dur="4">
                                        <note tab.course="3" tab.fret="3" pnum="60" />
                                    </tabGrp>
                                </layer>
                            </staff>
                        </measure>
                        <measure n="8">
                            <staff n="1">
                                <layer n="1">
                                    <tabGrp dur="4">
                                        <note tab.course="1" tab.fret="0" pnum="67" />
                                        <note tab.course="3" tab.fret="1" pnum="58" />
                                    </tabGrp>
                                    <tabGrp dur="4">
                                        <note tab.course="4" tab.fret="2" pnum="55" />
                                    </tabGrp>
                                    <tabGrp dur="4">
                                        <note tab.course="1" tab.fret="0" pnum="67" />
                                        <note tab.course="3" tab.fret="1" pnum="58" />
                                    </tabGrp>
                                    <tabGrp dur="4">
                                        <note tab.course="2" tab.fret="1" pnum="63" />
                                    </tabGrp>
                                </layer>
                            </staff>
                        </measure>
                        <measure n="9">
                            <staff n="1">
                                <layer n="1">
                                    <tabGrp dur="4">
                                        <note tab.course="1" tab.fret="2" pnum="69" />
                                        <note tab.course="2" tab.fret="0" pnum="62" />
                                    </tabGrp>
                                    <tabGrp dur="4">
                                        <note tab.course="3" tab.fret="3" pnum="60" />
                                    </tabGrp>
                                    <tabGrp dur="4">
                                        <note tab.course="1" tab.fret="2" pnum="69" xml:id="id3" />
                                    </tabGrp>
                                    <tabGrp dur="8">
                                        <tabDurSym />
                                        <note tab.course="3" tab.fret="1" pnum="58" />
                                    </tabGrp>
                                    <tabGrp dur="8">
                                        <note tab.course="3" tab.fret="0" pnum="57" xml:id="id4" />
                                    </tabGrp>
                                </layer>
                            </staff>
                            <fing type="right 1" startid="#id3" />
                            <fing type="right 1" startid="#id4" />
                        </measure>
                    </section>
                </score>
            </mdiv>
        </body>
    </music>
</mei>
