% Converted to .tab by luteconv 1.5.2
% encoding-date 2024-09-27
-C
-highlightparen
-tuning g4c3f3a2d2g2
$numstyle=italian
$line=o
{Recercar sexto/Giovanni Maria da Crema}

% Stave 1
% Bar 1
b
00 2
1.0 2
22
% Bar 2
b
13 2
x 0
x3 2
x 3
% Bar 3
b
x 2 0
x 0
x   0
3 2
x 0.
x3
x2.
% Bar 4
b
10  1
x 3
x 2 1
x3
% Bar 5
b
x 0 0
x 2
x 32
2   1.
x 2
% Bar 6
b
1 0 0
x3 2
x2
x  1
% Bar 7
b

% Stave 2
% Bar 7
b
1.0 2  0
2   0
1   1 0
x   3
% Bar 8
b
x   1 0
x  2
x   1 0
x    1
% Bar 9
b
x    02
x   3
x     2.
2   1
x   0.
% Bar 10
b
e
