<?xml version="1.0" standalone="no"?>
<mei xmlns="http://www.music-encoding.org/ns/mei" meiversion="5.1">
    <meiHead>
        <fileDesc>
            <titleStmt>
                <title>Allemande Partie</title>
                <composer> da copia a mano di J.-F. Goy del ms. Oxford G616 p.2-3</composer>
            </titleStmt>
            <pubStmt />
        </fileDesc>
        <encodingDesc>
            <appInfo>
                <application isodate="2025-01-22" version="1.5.3">
                    <name>luteconv</name>
                </application>
            </appInfo>
        </encodingDesc>
        <workList>
            <work>
                <title>Allemande Partie</title>
                <composer> da copia a mano di J.-F. Goy del ms. Oxford G616 p.2-3</composer>
                <notesStmt>
                    <annot>with the Contrepartie in Sloane 2923 p.34</annot>
                </notesStmt>
            </work>
        </workList>
    </meiHead>
    <music>
        <body>
            <mdiv n="1">
                <score>
                    <scoreDef>
                        <staffGrp>
                            <staffDef n="1" lines="6" notationtype="tab.lute.french">
                                <clef visible="false" shape="TAB" line="5" />
                                <meterSig sym="common" count="4" unit="4" />
                                <tuning>
                                    <course n="1" pname="f" oct="4" />
                                    <course n="2" pname="d" oct="4" />
                                    <course n="3" pname="a" oct="3" />
                                    <course n="4" pname="f" oct="3" />
                                    <course n="5" pname="d" oct="3" />
                                    <course n="6" pname="a" oct="2" />
                                    <course n="7" pname="g" oct="2" />
                                    <course n="8" pname="f" oct="2" />
                                    <course n="9" pname="e" oct="2" />
                                    <course n="10" pname="d" oct="2" />
                                    <course n="11" pname="c" oct="2" />
                                </tuning>
                            </staffDef>
                        </staffGrp>
                    </scoreDef>
                    <section n="1">
                        <measure n="1">
                            <staff n="1">
                                <layer n="1">
                                    <tabGrp dur="4">
                                        <tabDurSym />
                                        <note tab.course="3" tab.fret="3" pnum="60" />
                                    </tabGrp>
                                </layer>
                            </staff>
                        </measure>
                        <measure n="2">
                            <staff n="1">
                                <layer n="1">
                                    <tabGrp dur="4" dots="1">
                                        <tabDurSym />
                                        <note tab.course="3" tab.fret="3" pnum="60" />
                                        <note tab.course="4" tab.fret="2" pnum="55" />
                                        <note tab.course="5" tab.fret="2" pnum="52" />
                                        <note tab.course="11" tab.fret="0" pnum="36" />
                                    </tabGrp>
                                    <tabGrp dur="8">
                                        <tabDurSym />
                                        <note tab.course="2" tab.fret="0" pnum="62" />
                                    </tabGrp>
                                    <tabGrp dur="4">
                                        <tabDurSym />
                                        <note tab.course="2" tab.fret="2" pnum="64" />
                                    </tabGrp>
                                    <tabGrp dur="4">
                                        <note tab.course="1" tab.fret="0" pnum="65" />
                                    </tabGrp>
                                    <tabGrp dur="4">
                                        <note tab.course="2" tab.fret="0" pnum="62" />
                                        <note tab.course="6" tab.fret="2" pnum="47" />
                                    </tabGrp>
                                    <tabGrp dur="4">
                                        <note tab.course="1" tab.fret="2" pnum="67" />
                                    </tabGrp>
                                    <tabGrp dur="4">
                                        <note tab.course="1" tab.fret="2" pnum="67" />
                                    </tabGrp>
                                    <tabGrp dur="4">
                                        <note tab.course="1" tab.fret="0" pnum="65" />
                                    </tabGrp>
                                </layer>
                            </staff>
                        </measure>
                        <measure n="3">
                            <staff n="1">
                                <layer n="1">
                                    <tabGrp dur="4">
                                        <tabDurSym />
                                        <note tab.course="2" tab.fret="2" pnum="64" />
                                        <note tab.course="6" tab.fret="3" pnum="48" />
                                    </tabGrp>
                                    <tabGrp dur="4">
                                        <note tab.course="2" tab.fret="2" pnum="64" />
                                    </tabGrp>
                                    <tabGrp dur="4">
                                        <note tab.course="2" tab.fret="0" pnum="62" />
                                        <note tab.course="8" tab.fret="0" pnum="41" />
                                    </tabGrp>
                                    <tabGrp dur="4">
                                        <note tab.course="3" tab.fret="3" pnum="60" />
                                    </tabGrp>
                                    <tabGrp dur="4">
                                        <note tab.course="3" tab.fret="2" pnum="59" />
                                        <note tab.course="7" tab.fret="0" pnum="43" />
                                    </tabGrp>
                                    <tabGrp dur="4">
                                        <note tab.course="4" tab.fret="2" pnum="55" />
                                    </tabGrp>
                                    <tabGrp dur="4">
                                        <note tab.course="2" tab.fret="0" pnum="62" />
                                    </tabGrp>
                                    <tabGrp dur="4">
                                        <note tab.course="8" tab.fret="0" pnum="41" />
                                    </tabGrp>
                                </layer>
                            </staff>
                        </measure>
                        <measure n="4">
                            <staff n="1">
                                <layer n="1">
                                    <tabGrp dur="4">
                                        <tabDurSym />
                                        <note tab.course="9" tab.fret="0" pnum="40" />
                                    </tabGrp>
                                    <tabGrp dur="4">
                                        <note tab.course="4" tab.fret="2" pnum="55" />
                                    </tabGrp>
                                    <tabGrp dur="4">
                                        <note tab.course="3" tab.fret="3" pnum="60" />
                                    </tabGrp>
                                    <tabGrp dur="4">
                                        <note tab.course="3" tab.fret="3" pnum="60" />
                                    </tabGrp>
                                    <tabGrp dur="4">
                                        <note tab.course="2" tab.fret="0" pnum="62" />
                                        <note tab.course="10" tab.fret="0" pnum="38" />
                                    </tabGrp>
                                    <tabGrp dur="4">
                                        <note tab.course="2" tab.fret="2" pnum="64" />
                                    </tabGrp>
                                    <tabGrp dur="4">
                                        <note tab.course="1" tab.fret="0" pnum="65" />
                                    </tabGrp>
                                    <tabGrp dur="4">
                                        <note tab.course="1" tab.fret="2" pnum="67" />
                                    </tabGrp>
                                </layer>
                            </staff>
                        </measure>
                        <measure n="5">
                            <staff n="1">
                                <layer n="1">
                                    <tabGrp dur="4">
                                        <tabDurSym />
                                        <note tab.course="2" tab.fret="2" pnum="64" />
                                        <note tab.course="11" tab.fret="0" pnum="36" />
                                    </tabGrp>
                                    <tabGrp dur="4">
                                        <note tab.course="2" tab.fret="2" pnum="64" />
                                    </tabGrp>
                                    <tabGrp dur="4">
                                        <note tab.course="2" tab.fret="0" pnum="62" />
                                        <note tab.course="7" tab.fret="1" pnum="44" />
                                    </tabGrp>
                                    <tabGrp dur="4">
                                        <note tab.course="3" tab.fret="2" pnum="59" />
                                    </tabGrp>
                                    <tabGrp dur="4">
                                        <note tab.course="3" tab.fret="3" pnum="60" />
                                        <note tab.course="6" tab.fret="0" pnum="45" />
                                    </tabGrp>
                                    <tabGrp dur="4">
                                        <note tab.course="5" tab.fret="2" pnum="52" />
                                    </tabGrp>
                                    <tabGrp dur="4">
                                        <note tab.course="3" tab.fret="4" pnum="61" />
                                    </tabGrp>
                                    <tabGrp dur="4">
                                        <note tab.course="2" tab.fret="0" pnum="62" />
                                        <note tab.course="5" tab.fret="0" pnum="50" />
                                    </tabGrp>
                                </layer>
                            </staff>
                        </measure>
                        <measure n="6">
                            <staff n="1">
                                <layer n="1">
                                    <tabGrp dur="4">
                                        <tabDurSym />
                                        <note tab.course="2" tab.fret="2" pnum="64" />
                                        <note tab.course="6" tab.fret="4" pnum="49" />
                                    </tabGrp>
                                    <tabGrp dur="4">
                                        <note tab.course="3" tab.fret="0" pnum="57" />
                                    </tabGrp>
                                    <tabGrp dur="4">
                                        <note tab.course="1" tab.fret="4" pnum="69" />
                                    </tabGrp>
                                    <tabGrp dur="4">
                                        <note tab.course="1" tab.fret="2" pnum="67" />
                                    </tabGrp>
                                    <tabGrp dur="4">
                                        <note tab.course="1" tab.fret="0" pnum="65" />
                                        <note tab.course="5" tab.fret="0" pnum="50" />
                                    </tabGrp>
                                    <tabGrp dur="4">
                                        <note tab.course="2" tab.fret="0" pnum="62" />
                                    </tabGrp>
                                    <tabGrp dur="4">
                                        <note tab.course="1" tab.fret="2" pnum="67" />
                                    </tabGrp>
                                    <tabGrp dur="4">
                                        <note tab.course="3" tab.fret="3" pnum="60" />
                                    </tabGrp>
                                </layer>
                            </staff>
                        </measure>
                        <measure n="7">
                            <staff n="1">
                                <layer n="1">
                                    <tabGrp dur="4">
                                        <tabDurSym />
                                        <note tab.course="3" tab.fret="2" pnum="59" />
                                        <note tab.course="7" tab.fret="0" pnum="43" />
                                    </tabGrp>
                                    <tabGrp dur="4">
                                        <note tab.course="4" tab.fret="2" pnum="55" />
                                    </tabGrp>
                                    <tabGrp dur="4">
                                        <note tab.course="2" tab.fret="0" pnum="62" />
                                    </tabGrp>
                                    <tabGrp dur="4">
                                        <note tab.course="8" tab.fret="0" pnum="41" />
                                    </tabGrp>
                                    <tabGrp dur="2" dots="1">
                                        <tabDurSym />
                                        <note tab.course="3" tab.fret="3" pnum="60" />
                                        <note tab.course="4" tab.fret="2" pnum="55" />
                                        <note tab.course="9" tab.fret="0" pnum="40" />
                                    </tabGrp>
                                    <tabGrp dur="4">
                                        <tabDurSym />
                                        <note tab.course="3" tab.fret="3" pnum="60" />
                                    </tabGrp>
                                </layer>
                            </staff>
                        </measure>
                        <measure n="8">
                            <staff n="1">
                                <layer n="1">
                                    <tabGrp dur="2">
                                        <tabDurSym />
                                        <note tab.course="3" tab.fret="3" pnum="60" />
                                        <note tab.course="4" tab.fret="1" pnum="54" />
                                        <note tab.course="10" tab.fret="0" pnum="38" />
                                    </tabGrp>
                                    <tabGrp dur="4">
                                        <tabDurSym />
                                        <note tab.course="3" tab.fret="2" pnum="59" />
                                        <note tab.course="4" tab.fret="2" pnum="55" />
                                        <note tab.course="7" tab.fret="0" pnum="43" />
                                    </tabGrp>
                                    <tabGrp dur="4">
                                        <note tab.course="6" tab.fret="3" pnum="48" />
                                    </tabGrp>
                                    <tabGrp dur="4">
                                        <note tab.course="5" tab.fret="0" pnum="50" />
                                    </tabGrp>
                                    <tabGrp dur="8">
                                        <tabDurSym />
                                        <note tab.course="3" tab.fret="2" pnum="59" />
                                    </tabGrp>
                                    <tabGrp dur="8">
                                        <note tab.course="3" tab.fret="3" pnum="60" />
                                    </tabGrp>
                                    <tabGrp dur="4" dots="1">
                                        <tabDurSym />
                                        <note tab.course="3" tab.fret="0" pnum="57" />
                                        <note tab.course="10" tab.fret="0" pnum="38" />
                                    </tabGrp>
                                    <tabGrp dur="16">
                                        <tabDurSym />
                                        <note tab.course="4" tab.fret="2" pnum="55" />
                                    </tabGrp>
                                    <tabGrp dur="16">
                                        <note tab.course="3" tab.fret="0" pnum="57" />
                                    </tabGrp>
                                </layer>
                            </staff>
                        </measure>
                        <measure n="9" right="dbl">
                            <staff n="1">
                                <layer n="1">
                                    <tabGrp dur="4">
                                        <tabDurSym />
                                        <note tab.course="4" tab.fret="2" pnum="55" />
                                    </tabGrp>
                                    <tabGrp dur="4">
                                        <note tab.course="7" tab.fret="0" pnum="43" />
                                    </tabGrp>
                                    <tabGrp dur="4">
                                        <note tab.course="5" tab.fret="0" pnum="50" />
                                    </tabGrp>
                                    <tabGrp dur="4">
                                        <note tab.course="4" tab.fret="2" pnum="55" />
                                    </tabGrp>
                                    <tabGrp dur="2" dots="1">
                                        <tabDurSym />
                                        <note tab.course="1" tab.fret="2" pnum="67" />
                                        <note tab.course="2" tab.fret="0" pnum="62" />
                                        <note tab.course="3" tab.fret="2" pnum="59" />
                                        <note tab.course="4" tab.fret="2" pnum="55" />
                                    </tabGrp>
                                </layer>
                            </staff>
                        </measure>
                        <measure n="10">
                            <staff n="1">
                                <layer n="1">
                                    <tabGrp dur="4">
                                        <tabDurSym />
                                        <note tab.course="1" tab.fret="2" pnum="67" />
                                    </tabGrp>
                                </layer>
                            </staff>
                        </measure>
                        <measure n="11">
                            <staff n="1">
                                <layer n="1">
                                    <tabGrp dur="4" dots="1">
                                        <tabDurSym />
                                        <note tab.course="1" tab.fret="2" pnum="67" />
                                        <note tab.course="2" tab.fret="0" pnum="62" />
                                        <note tab.course="3" tab.fret="2" pnum="59" />
                                        <note tab.course="4" tab.fret="2" pnum="55" />
                                        <note tab.course="7" tab.fret="0" pnum="43" />
                                    </tabGrp>
                                    <tabGrp dur="8">
                                        <tabDurSym />
                                        <note tab.course="2" tab.fret="0" pnum="62" />
                                    </tabGrp>
                                    <tabGrp dur="4">
                                        <tabDurSym />
                                        <note tab.course="2" tab.fret="2" pnum="64" />
                                    </tabGrp>
                                    <tabGrp dur="4">
                                        <note tab.course="3" tab.fret="3" pnum="60" />
                                    </tabGrp>
                                    <tabGrp dur="4">
                                        <note tab.course="3" tab.fret="2" pnum="59" />
                                    </tabGrp>
                                    <tabGrp dur="4">
                                        <note tab.course="5" tab.fret="0" pnum="50" />
                                    </tabGrp>
                                    <tabGrp dur="4">
                                        <note tab.course="5" tab.fret="2" pnum="52" />
                                    </tabGrp>
                                    <tabGrp dur="4">
                                        <note tab.course="6" tab.fret="3" pnum="48" />
                                    </tabGrp>
                                </layer>
                            </staff>
                        </measure>
                        <measure n="12">
                            <staff n="1">
                                <layer n="1">
                                    <tabGrp dur="4">
                                        <tabDurSym />
                                        <note tab.course="2" tab.fret="0" pnum="62" />
                                        <note tab.course="4" tab.fret="2" pnum="55" />
                                        <note tab.course="6" tab.fret="2" pnum="47" />
                                    </tabGrp>
                                    <tabGrp dur="4">
                                        <note tab.course="7" tab.fret="0" pnum="43" />
                                    </tabGrp>
                                    <tabGrp dur="4">
                                        <note tab.course="1" tab.fret="2" pnum="67" />
                                    </tabGrp>
                                    <tabGrp dur="4">
                                        <note tab.course="2" tab.fret="3" pnum="65" />
                                    </tabGrp>
                                    <tabGrp dur="4">
                                        <note tab.course="2" tab.fret="2" pnum="64" />
                                        <note tab.course="6" tab.fret="3" pnum="48" />
                                    </tabGrp>
                                    <tabGrp dur="4">
                                        <note tab.course="5" tab.fret="0" pnum="50" />
                                    </tabGrp>
                                    <tabGrp dur="4">
                                        <note tab.course="5" tab.fret="2" pnum="52" />
                                    </tabGrp>
                                    <tabGrp dur="4">
                                        <note tab.course="2" tab.fret="2" pnum="64" />
                                    </tabGrp>
                                </layer>
                            </staff>
                        </measure>
                        <measure n="13">
                            <staff n="1">
                                <layer n="1">
                                    <tabGrp dur="4">
                                        <tabDurSym />
                                        <note tab.course="2" tab.fret="2" pnum="64" />
                                        <note tab.course="5" tab.fret="3" pnum="53" />
                                    </tabGrp>
                                    <tabGrp dur="4">
                                        <note tab.course="3" tab.fret="0" pnum="57" />
                                    </tabGrp>
                                    <tabGrp dur="4">
                                        <note tab.course="1" tab.fret="4" pnum="69" />
                                    </tabGrp>
                                    <tabGrp dur="4">
                                        <note tab.course="1" tab.fret="6" pnum="71" />
                                    </tabGrp>
                                    <tabGrp dur="4">
                                        <note tab.course="1" tab.fret="7" pnum="72" />
                                        <note tab.course="6" tab.fret="0" pnum="45" />
                                    </tabGrp>
                                    <tabGrp dur="4">
                                        <note tab.course="3" tab.fret="7" pnum="64" />
                                    </tabGrp>
                                    <tabGrp dur="4">
                                        <note tab.course="2" tab.fret="3" pnum="65" />
                                    </tabGrp>
                                    <tabGrp dur="4">
                                        <note tab.course="2" tab.fret="0" pnum="62" />
                                    </tabGrp>
                                </layer>
                            </staff>
                        </measure>
                        <measure n="14">
                            <staff n="1">
                                <layer n="1">
                                    <tabGrp dur="2">
                                        <tabDurSym />
                                        <note tab.course="1" tab.fret="4" pnum="69" />
                                        <note tab.course="2" tab.fret="2" pnum="64" />
                                        <note tab.course="3" tab.fret="3" pnum="60" />
                                    </tabGrp>
                                    <tabGrp dur="4">
                                        <tabDurSym />
                                        <note tab.course="3" tab.fret="2" pnum="59" />
                                    </tabGrp>
                                    <tabGrp dur="4">
                                        <note tab.course="4" tab.fret="4" pnum="57" />
                                    </tabGrp>
                                    <tabGrp dur="2">
                                        <tabDurSym />
                                        <note tab.course="1" tab.fret="4" pnum="69" />
                                        <note tab.course="3" tab.fret="2" pnum="59" />
                                        <note tab.course="5" tab.fret="2" pnum="52" />
                                    </tabGrp>
                                    <tabGrp dur="4">
                                        <tabDurSym />
                                        <note tab.course="1" tab.fret="2" pnum="67" />
                                    </tabGrp>
                                    <tabGrp dur="4">
                                        <note tab.course="1" tab.fret="2" pnum="67" />
                                    </tabGrp>
                                </layer>
                            </staff>
                        </measure>
                        <measure n="15">
                            <staff n="1">
                                <layer n="1">
                                    <tabGrp dur="2">
                                        <tabDurSym />
                                        <note tab.course="1" tab.fret="2" pnum="67" />
                                        <note tab.course="3" tab.fret="4" pnum="61" />
                                        <note tab.course="4" tab.fret="4" pnum="57" />
                                    </tabGrp>
                                    <tabGrp dur="2">
                                        <note tab.course="1" tab.fret="0" pnum="65" />
                                        <note tab.course="2" tab.fret="2" pnum="64" />
                                        <note tab.course="5" tab.fret="0" pnum="50" />
                                    </tabGrp>
                                    <tabGrp dur="2">
                                        <note tab.course="2" tab.fret="2" pnum="64" />
                                        <note tab.course="3" tab.fret="5" pnum="62" />
                                        <note tab.course="6" tab.fret="0" pnum="45" />
                                    </tabGrp>
                                    <tabGrp dur="4">
                                        <tabDurSym />
                                        <note tab.course="3" tab.fret="4" pnum="61" />
                                    </tabGrp>
                                    <tabGrp dur="4">
                                        <note tab.course="4" tab.fret="2" pnum="55" />
                                    </tabGrp>
                                </layer>
                            </staff>
                        </measure>
                        <measure n="16">
                            <staff n="1">
                                <layer n="1">
                                    <tabGrp dur="2">
                                        <tabDurSym />
                                        <note tab.course="2" tab.fret="0" pnum="62" />
                                        <note tab.course="3" tab.fret="0" pnum="57" />
                                        <note tab.course="5" tab.fret="4" pnum="54" />
                                    </tabGrp>
                                    <tabGrp dur="4">
                                        <tabDurSym />
                                        <note tab.course="3" tab.fret="3" pnum="60" />
                                    </tabGrp>
                                    <tabGrp dur="4">
                                        <note tab.course="2" tab.fret="0" pnum="62" />
                                    </tabGrp>
                                    <tabGrp dur="2">
                                        <tabDurSym />
                                        <note tab.course="1" tab.fret="2" pnum="67" />
                                        <note tab.course="3" tab.fret="2" pnum="59" />
                                        <note tab.course="7" tab.fret="0" pnum="43" />
                                    </tabGrp>
                                    <tabGrp dur="4">
                                        <tabDurSym />
                                        <note tab.course="1" tab.fret="0" pnum="65" />
                                    </tabGrp>
                                    <tabGrp dur="4">
                                        <note tab.course="1" tab.fret="2" pnum="67" />
                                    </tabGrp>
                                </layer>
                            </staff>
                        </measure>
                        <measure n="17">
                            <staff n="1">
                                <layer n="1">
                                    <tabGrp dur="4">
                                        <tabDurSym />
                                        <note tab.course="2" tab.fret="5" pnum="67" />
                                        <note tab.course="9" tab.fret="0" pnum="40" />
                                    </tabGrp>
                                    <tabGrp dur="4">
                                        <note tab.course="1" tab.fret="7" pnum="72" />
                                    </tabGrp>
                                    <tabGrp dur="4">
                                        <note tab.course="3" tab.fret="7" pnum="64" />
                                    </tabGrp>
                                    <tabGrp dur="4">
                                        <note tab.course="1" tab.fret="6" pnum="71" />
                                    </tabGrp>
                                    <tabGrp dur="4">
                                        <note tab.course="1" tab.fret="4" pnum="69" />
                                        <note tab.course="2" tab.fret="3" pnum="65" />
                                        <note tab.course="8" tab.fret="0" pnum="41" />
                                    </tabGrp>
                                    <tabGrp dur="4">
                                        <note tab.course="1" tab.fret="2" pnum="67" />
                                        <note tab.course="2" tab.fret="2" pnum="64" />
                                    </tabGrp>
                                    <tabGrp dur="4">
                                        <note tab.course="1" tab.fret="0" pnum="65" />
                                        <note tab.course="2" tab.fret="0" pnum="62" />
                                    </tabGrp>
                                    <tabGrp dur="4">
                                        <note tab.course="2" tab.fret="2" pnum="64" />
                                        <note tab.course="3" tab.fret="3" pnum="60" />
                                    </tabGrp>
                                </layer>
                            </staff>
                        </measure>
                        <measure n="18">
                            <staff n="1">
                                <layer n="1">
                                    <tabGrp dur="2" dots="1">
                                        <tabDurSym />
                                        <note tab.course="1" tab.fret="2" pnum="67" />
                                        <note tab.course="3" tab.fret="2" pnum="59" />
                                        <note tab.course="7" tab.fret="0" pnum="43" />
                                    </tabGrp>
                                    <tabGrp dur="4">
                                        <tabDurSym />
                                        <note tab.course="1" tab.fret="0" pnum="65" />
                                        <note tab.course="6" tab.fret="2" pnum="47" />
                                    </tabGrp>
                                    <tabGrp dur="4">
                                        <note tab.course="2" tab.fret="2" pnum="64" />
                                        <note tab.course="6" tab.fret="3" pnum="48" />
                                    </tabGrp>
                                    <tabGrp dur="4">
                                        <note tab.course="8" tab.fret="0" pnum="41" />
                                    </tabGrp>
                                    <tabGrp dur="4" dots="1">
                                        <tabDurSym />
                                        <note tab.course="2" tab.fret="0" pnum="62" />
                                        <note tab.course="7" tab.fret="0" pnum="43" />
                                    </tabGrp>
                                    <tabGrp dur="16">
                                        <tabDurSym />
                                        <note tab.course="3" tab.fret="3" pnum="60" />
                                    </tabGrp>
                                    <tabGrp dur="16">
                                        <note tab.course="2" tab.fret="0" pnum="62" />
                                    </tabGrp>
                                </layer>
                            </staff>
                        </measure>
                        <measure n="19" right="dbl">
                            <staff n="1">
                                <layer n="1">
                                    <tabGrp dur="4">
                                        <tabDurSym />
                                        <note tab.course="3" tab.fret="3" pnum="60" />
                                    </tabGrp>
                                    <tabGrp dur="4">
                                        <note tab.course="11" tab.fret="0" pnum="36" />
                                    </tabGrp>
                                    <tabGrp dur="4">
                                        <note tab.course="6" tab.fret="3" pnum="48" />
                                    </tabGrp>
                                    <tabGrp dur="4">
                                        <note tab.course="5" tab.fret="2" pnum="52" />
                                    </tabGrp>
                                    <tabGrp dur="2" dots="1">
                                        <tabDurSym />
                                        <note tab.course="3" tab.fret="3" pnum="60" />
                                        <note tab.course="4" tab.fret="2" pnum="55" />
                                        <note tab.course="5" tab.fret="2" pnum="52" />
                                    </tabGrp>
                                </layer>
                            </staff>
                        </measure>
                    </section>
                </score>
            </mdiv>
        </body>
    </music>
</mei>
