<?xml version="1.0" standalone="no"?>
<mei xmlns="http://www.music-encoding.org/ns/mei" meiversion="5.1">
    <meiHead>
        <fileDesc>
            <titleStmt>
                <title>Anna Magdalena Bach Notebook Menuet II</title>
                <composer>J.S. Bach</composer>
            </titleStmt>
            <pubStmt />
        </fileDesc>
        <encodingDesc>
            <appInfo>
                <application isodate="2025-01-22" version="1.5.3">
                    <name>luteconv</name>
                </application>
            </appInfo>
        </encodingDesc>
        <workList>
            <work>
                <title>Anna Magdalena Bach Notebook Menuet II</title>
                <composer>J.S. Bach</composer>
            </work>
        </workList>
    </meiHead>
    <music>
        <body>
            <mdiv n="1">
                <score>
                    <scoreDef>
                        <staffGrp>
                            <staffDef n="1" lines="6" notationtype="tab.lute.french">
                                <clef visible="false" shape="TAB" line="5" />
                                <meterSig count="3" unit="4" />
                                <tuning>
                                    <course n="1" pname="g" oct="4" />
                                    <course n="2" pname="d" oct="4" />
                                    <course n="3" pname="a" oct="3" />
                                    <course n="4" pname="f" oct="3" />
                                    <course n="5" pname="c" oct="3" />
                                </tuning>
                            </staffDef>
                        </staffGrp>
                    </scoreDef>
                    <section n="1">
                        <measure n="1">
                            <staff n="1">
                                <layer n="1">
                                    <tabGrp dur="2">
                                        <tabDurSym />
                                        <note tab.course="1" tab.fret="0" pnum="67" />
                                        <note tab.course="5" tab.fret="4" pnum="52" />
                                    </tabGrp>
                                    <tabGrp dur="4">
                                        <tabDurSym />
                                        <note tab.course="3" tab.fret="3" pnum="60" />
                                    </tabGrp>
                                    <tabGrp dur="4">
                                        <tabDurSym />
                                        <note tab.course="2" tab.fret="0" pnum="62" />
                                    </tabGrp>
                                    <tabGrp dur="4">
                                        <tabDurSym />
                                        <note tab.course="2" tab.fret="2" pnum="64" />
                                        <note tab.course="5" tab.fret="2" pnum="50" />
                                    </tabGrp>
                                    <tabGrp dur="4">
                                        <tabDurSym />
                                        <note tab.course="2" tab.fret="3" pnum="65" />
                                    </tabGrp>
                                </layer>
                            </staff>
                        </measure>
                        <measure n="2">
                            <staff n="1">
                                <layer n="1">
                                    <tabGrp dur="2">
                                        <tabDurSym />
                                        <note tab.course="1" tab.fret="0" pnum="67" />
                                        <note tab.course="5" tab.fret="4" pnum="52" />
                                    </tabGrp>
                                    <tabGrp dur="2">
                                        <tabDurSym />
                                        <note tab.course="3" tab.fret="3" pnum="60" />
                                    </tabGrp>
                                    <tabGrp dur="2">
                                        <tabDurSym />
                                        <note tab.course="3" tab.fret="3" pnum="60" />
                                    </tabGrp>
                                </layer>
                            </staff>
                        </measure>
                        <measure n="3">
                            <staff n="1">
                                <layer n="1">
                                    <tabGrp dur="2">
                                        <tabDurSym />
                                        <note tab.course="1" tab.fret="2" pnum="69" />
                                        <note tab.course="5" tab.fret="5" pnum="53" />
                                    </tabGrp>
                                    <tabGrp dur="4">
                                        <tabDurSym />
                                        <note tab.course="2" tab.fret="3" pnum="65" />
                                    </tabGrp>
                                    <tabGrp dur="4">
                                        <tabDurSym />
                                        <note tab.course="1" tab.fret="0" pnum="67" />
                                    </tabGrp>
                                    <tabGrp dur="4">
                                        <tabDurSym />
                                        <note tab.course="1" tab.fret="2" pnum="69" />
                                    </tabGrp>
                                    <tabGrp dur="4">
                                        <tabDurSym />
                                        <note tab.course="1" tab.fret="4" pnum="71" />
                                    </tabGrp>
                                </layer>
                            </staff>
                        </measure>
                        <measure n="4" right="end">
                            <staff n="1">
                                <layer n="1">
                                    <tabGrp dur="1">
                                        <tabDurSym />
                                        <note tab.course="1" tab.fret="5" pnum="72" />
                                        <note tab.course="5" tab.fret="4" pnum="52" />
                                    </tabGrp>
                                </layer>
                            </staff>
                        </measure>
                    </section>
                </score>
            </mdiv>
        </body>
    </music>
</mei>
